{
  "project_info": {
    "project_number": "1025741260960",
    "project_id": "firebase-book-meeting-room"
  },
  "client": [
    {
      "client_info": {
        "mobilesdk_app_id": "1:1025741260960:android:75b0ac0c8456ac5d",
        "android_client_info": {
          "package_name": "com.daffodil.bookmeetingroom"
        }
      },
      "oauth_client": [
        {
          "client_id": "1025741260960-ji2l15h6gb6pm8huidg40nq9nn0dissn.apps.googleusercontent.com",
          "client_type": 1,
          "android_info": {
            "package_name": "com.daffodil.bookmeetingroom",
            "certificate_hash": "9D49AC0FB002E645AFA71F8EFD86935129C09BE6"
          }
        },
        {
          "client_id": "1025741260960-r43k8sk6sovejhbhetdlfmhc90pihqu7.apps.googleusercontent.com",
          "client_type": 3
        }
      ],
      "api_key": [
        {
          "current_key": "AIzaSyCS1narwBsFdjLaVvwIuGg44aira4l2rdw"
        }
      ],
      "services": {
        "analytics_service": {
          "status": 1
        },
        "appinvite_service": {
          "status": 1,
          "other_platform_oauth_client": []
        },
        "ads_service": {
          "status": 1
        }
      }
    }
  ],
  "configuration_version": "1"
}